Time,Load (kW),Pressure_kpa,Cloud Cover (%),Humidity (%),Temperature (C) ,Wind Direction (deg),Wind Speed (kmh)
2021-02-16 00:00:00,1069365.932,1012.425,11.75,67.83333333,15.79188622,259,4.5725
2021-02-16 01:00:00,1051863.432,1011.775,6.25,71,14.30688622,317.75,5.01
2021-02-16 02:00:00,1036843.932,1011.425,12,71.66666667,13.96688622,331,4.7825
2021-02-16 03:00:00,1027751.932,1011.175,12,70.16666667,13.54188622,333.25,9.5925
2021-02-16 04:00:00,1020528.432,1011,14.25,74,11.02188622,123.25,8.3975
2021-02-16 05:00:00,1021299.432,1011.275,5.5,73.83333333,10.35188622,32.25,4.165
2021-02-16 06:00:00,1035374.932,1012,8.5,73,10.22688622,51.75,3.0325
2021-02-16 07:00:00,1083102.432,1012.85,16.25,72,10.61188622,57.75,2.5725
2021-02-16 08:00:00,1170866.932,1013.75,14.5,72,11.58188622,71.75,0.8225
2021-02-16 09:00:00,1259924.932,1014.275,8.25,65.66666667,18.56688622,176.75,1.3825
2021-02-16 10:00:00,1321669.432,1014.55,0,59.33333333,23.11188622,248.5,5.985
2021-02-16 11:00:00,1339398.932,1014.425,0,55.16666667,28.00188622,206,8.4625
2021-02-16 12:00:00,1337036.432,1013.625,0,47.83333333,31.61188622,288.5,12.0975
2021-02-16 13:00:00,1328526.932,1012.525,0,60.83333333,27.28688622,271,24.49
2021-02-16 14:00:00,1332849.432,1011.175,0,54,28.38188622,297.75,19.645
2021-02-16 15:00:00,1322946.432,1010.65,0,51.66666667,27.85688622,316.5,23.7125
2021-02-16 16:00:00,1299348.932,1010.45,0,52.33333333,27.40688622,323.25,22.9825
2021-02-16 17:00:00,1267359.932,1010.625,0,53.33333333,25.25688622,328.25,18.2775
2021-02-16 18:00:00,1223531.432,1010.575,1,55.5,21.77188622,312,16.53
2021-02-16 19:00:00,1186482.432,1011.2,1,56.16666667,19.50688622,318.5,14.3825
2021-02-16 20:00:00,1147712.932,1011.9,0.25,56,19.33188622,341.25,9.585
2021-02-16 21:00:00,1121879.432,1012.55,0.25,52,17.75188622,341.25,13.305
2021-02-16 22:00:00,1101506.432,1012.6,4.5,50.66666667,17.38688622,31.25,10.155
2021-02-16 23:00:00,1077974.932,1012.35,7,51,16.81688622,13.75,7.72
